/* XPM */
static char * menuButtonI_xpm[] = {
"26 52 38 1",
" 	c None",
".	c #ECECEC",
"+	c #EAEAEA",
"@	c #EBEBEB",
"#	c #E7E7E7",
"$	c #E4E4E4",
"%	c #E3E3E3",
"&	c #E0E0E0",
"*	c #DCDCDC",
"=	c #DDDDDD",
"-	c #D9D9D9",
";	c #D6D6D6",
">	c #D2D2D2",
",	c #CFCFCF",
"'	c #CCCCCC",
")	c #CBCBCB",
"!	c #C8C8C8",
"~	c #C4C4C4",
"{	c #C5C5C5",
"]	c #C1C1C1",
"^	c #BEBEBE",
"/	c #BDBDBD",
"(	c #BABABA",
"_	c #B7B7B7",
":	c #B6B6B6",
"<	c #B3B3B3",
"[	c #B0B0B0",
"}	c #ACACAC",
"|	c #ADADAD",
"1	c #A9A9A9",
"2	c #A5A5A5",
"3	c #A6A6A6",
"4	c #A2A2A2",
"5	c #9F9F9F",
"6	c #9E9E9E",
"7	c #9B9B9B",
"8	c #979797",
"9	c #989898",
"..........................",
"+++++++++++@@@@++++@@@@@@@",
"##########################",
"$$$$$$$%%%%$$$$$$$$$$$$%%%",
"&&&&&&&&&&&&&&&&&&&&&&&&&&",
"*******====****========***",
"--------------------------",
";;;;;;;;;;;;;;;;;;;;;;;;;;",
">>>>>>>>>>>>>>>>>>>>>>>>>>",
",,,,,,,,,,,,,,,,,,,,,,,,,,",
"''')))))))))))))))))))))))",
"!!!!!!!!!!!!!!!!!!!!!!!!!!",
"~~~{{{{{{{{{{{{{{{{~~~~~~~",
"]]]]]]]]]]]]]]]]]]]]]]]]]]",
"^^^^^^^^^^^////^^^^^^^^///",
"((((((((((((((((((((((((((",
"_______________::::_______",
"<<<<<<<<<<<<<<<<<<<<<<<<<<",
"[[[[[[[[[[[[[[[[[[[[[[[[[[",
"}}}||||}}}}}}}}}}}}}}}}}}}",
"11111111111111111111111111",
"22222223333222222223333333",
"44444444444444444444444444",
"55566666666666666666666666",
"77777777777777777777777777",
"88899999999999999998888999",
"99999999999999999999999999",
"+++++++++++@@@@++++@@@@@@@",
"##########################",
"$$$$$$$%%%%$$$$$$$$$$$$%%%",
"&&&&&&&&&&&&&&&&&&&&&&&&&&",
"*******====****========***",
"--------------------------",
";;;;;;;;;;;;;;;;;;;;;;;;;;",
">>>>>>>>>>>>>>>>>>>>>>>>>>",
",,,,,,,,,,,,,,,,,,,,,,,,,,",
"''')))))))))))))))))))))))",
"!!!!!!!!!!!!!!!!!!!!!!!!!!",
"~~~{{{{{{{{{{{{{{{{~~~~~~~",
"]]]]]]]]]]]]]]]]]]]]]]]]]]",
"^^^^^^^^^^^////^^^^^^^^///",
"((((((((((((((((((((((((((",
"_______________::::_______",
"<<<<<<<<<<<<<<<<<<<<<<<<<<",
"[[[[[[[[[[[[[[[[[[[[[[[[[[",
"}}}||||}}}}}}}}}}}}}}}}}}}",
"11111111111111111111111111",
"22222223333222222223333333",
"44444444444444444444444444",
"55566666666666666666666666",
"77777777777777777777777777",
"99999999999999999999999999"};
