/* XPM */
static char * restoreI_xpm[] = {
"23 52 254 2",
"  	c None",
". 	c #A9A9A9",
"+ 	c #2B354D",
"@ 	c #151515",
"# 	c #161616",
"$ 	c #171717",
"% 	c #0D0D0D",
"& 	c #E1E1E1",
"* 	c #E6E6E6",
"= 	c #E9E9E9",
"- 	c #EAEAEA",
"; 	c #EBEBEB",
"> 	c #ECECEC",
", 	c #EDEDED",
"' 	c #EEEEEE",
") 	c #EFEFEF",
"! 	c #F0F0F0",
"~ 	c #F2F2F2",
"{ 	c #E0E0E0",
"] 	c #E8E8E8",
"^ 	c #424242",
"/ 	c #E4E4E4",
"( 	c #8A8A8A",
"_ 	c #414141",
": 	c #4A4A4A",
"< 	c #4F4F4F",
"[ 	c #505050",
"} 	c #5A5A5A",
"| 	c #6C6C6C",
"1 	c #777777",
"2 	c #CCCCCC",
"3 	c #E7E7E7",
"4 	c #CFCFCF",
"5 	c #F3F3F3",
"6 	c #525252",
"7 	c #D1D1D1",
"8 	c #DFDFDF",
"9 	c #F1F1F1",
"0 	c #CECECE",
"a 	c #C4C4C4",
"b 	c #DBDBDB",
"c 	c #DCDCDC",
"d 	c #DADADA",
"e 	c #D6D6D6",
"f 	c #E2E2E2",
"g 	c #DEDEDE",
"h 	c #E3E3E3",
"i 	c #2C384F",
"j 	c #2A344C",
"k 	c #3E97FF",
"l 	c #3C95FE",
"m 	c #3C94FE",
"n 	c #021E88",
"o 	c #080F79",
"p 	c #09107A",
"q 	c #0A117A",
"r 	c #051D86",
"s 	c #000775",
"t 	c #53CFFE",
"u 	c #73D8FE",
"v 	c #89DEFE",
"w 	c #8EDFFE",
"x 	c #92E1FE",
"y 	c #97E2FD",
"z 	c #9EE4FD",
"A 	c #A6E6FD",
"B 	c #ADE9FC",
"C 	c #B4EBFD",
"D 	c #BBEDFC",
"E 	c #C1EFFC",
"F 	c #C7F0FC",
"G 	c #CDF1FC",
"H 	c #D3F3FC",
"I 	c #D8F5FC",
"J 	c #DDF6FC",
"K 	c #E1F7FC",
"L 	c #E6F9FC",
"M 	c #E4F8FB",
"N 	c #4ACCFE",
"O 	c #50CEFE",
"P 	c #60D3FD",
"Q 	c #85DDFD",
"R 	c #A6E7FD",
"S 	c #BBECFC",
"T 	c #C1EEFC",
"U 	c #D2F3FC",
"V 	c #DCF6FC",
"W 	c #E5F9FC",
"X 	c #49CCFE",
"Y 	c #57D0FD",
"Z 	c #64D4FD",
"` 	c #90E0FE",
" .	c #96E2FD",
"..	c #A5E7FD",
"+.	c #5392DF",
"@.	c #56D0FD",
"#.	c #5DD2FD",
"$.	c #7BDBFD",
"%.	c #9EE5FD",
"&.	c #ADE8FC",
"*.	c #38C9F5",
"=.	c #48CCFE",
"-.	c #4FCEFE",
";.	c #5CD2FD",
">.	c #69D6FD",
",.	c #95E2FD",
"'.	c #A5E6FD",
").	c #CDF2FC",
"!.	c #D7F5FC",
"~.	c #E5F8FC",
"{.	c #55D0FE",
"].	c #62D3FD",
"^.	c #3382C2",
"/.	c #428EC8",
"(.	c #4D97CD",
"_.	c #549CD0",
":.	c #559DD0",
"<.	c #5099CE",
"[.	c #4590CA",
"}.	c #3785C4",
"|.	c #47CCFE",
"1.	c #4ECEFE",
"2.	c #55CFFE",
"3.	c #5BD1FD",
"4.	c #4490C9",
"5.	c #569ED1",
"6.	c #64A9D7",
"7.	c #6CAFDA",
"8.	c #6DB0DB",
"9.	c #66ABD8",
"0.	c #59A0D2",
"a.	c #4893CB",
"b.	c #3483C3",
"c.	c #D7F4FC",
"d.	c #4ECDFE",
"e.	c #54CFFE",
"f.	c #61D3FD",
"g.	c #3D8AC6",
"h.	c #9DE1FA",
"i.	c #A9E5FA",
"j.	c #B1E7FB",
"k.	c #B6E9FB",
"l.	c #BDEBFA",
"m.	c #BEEAF9",
"n.	c #579FD1",
"o.	c #418DC8",
"p.	c #E3F8FB",
"q.	c #46CBFE",
"r.	c #4DCDFE",
"s.	c #5AD1FD",
"t.	c #4792CB",
"u.	c #60A6D5",
"v.	c #7BDAFB",
"w.	c #9FE5FC",
"x.	c #B3EAFD",
"y.	c #BAECFD",
"z.	c #C0EEFC",
"A.	c #C4EEFB",
"B.	c #62A7D6",
"C.	c #4994CC",
"D.	c #74D8FB",
"E.	c #7ADBFB",
"F.	c #95E1FC",
"G.	c #B7EBFD",
"H.	c #67ACD8",
"I.	c #4E97CD",
"J.	c #4CCDFE",
"K.	c #59D1FD",
"L.	c #73D7FB",
"M.	c #7ADAFB",
"N.	c #80DCFB",
"O.	c #8CDFFB",
"P.	c #B3EAFC",
"Q.	c #45CBFE",
"R.	c #52CFFE",
"S.	c #5FD3FD",
"T.	c #79DAFB",
"U.	c #86DEFB",
"V.	c #8DE0FA",
"W.	c #ADE8FA",
"X.	c #E0F7FC",
"Y.	c #4BCDFE",
"Z.	c #58D1FD",
"`.	c #5FD2FD",
" +	c #72D5F9",
".+	c #79D8F9",
"++	c #7FDAF9",
"@+	c #86DCF9",
"#+	c #8BDEF8",
"$+	c #8FDEF7",
"%+	c #E4F8FC",
"&+	c #44CBFE",
"*+	c #51CEFE",
"=+	c #58D0FD",
"-+	c #5ED2FD",
";+	c #44CBFF",
">+	c #A9E8F9",
",+	c #43CAFF",
"'+	c #6AD6FC",
")+	c #71D8FC",
"!+	c #77DAFC",
"~+	c #7EDCFB",
"{+	c #84DEFB",
"]+	c #8BDFFA",
"^+	c #91E1FA",
"/+	c #98E3FA",
"(+	c #9FE5F9",
"_+	c #A5E7F9",
":+	c #B2EAF9",
"<+	c #DBF6FC",
"[+	c #E2F8FB",
"}+	c #63D4FD",
"|+	c #70D8FC",
"1+	c #7EDBFB",
"2+	c #84DDFB",
"3+	c #9EE5F9",
"4+	c #ABE9F9",
"5+	c #BBEDF9",
"6+	c #E3F8FC",
"7+	c #42CAFF",
"8+	c #69D6FC",
"9+	c #76D9FC",
"0+	c #7DDBFB",
"a+	c #8ADFFA",
"b+	c #97E3FA",
"c+	c #A4E7F9",
"d+	c #B1EBF8",
"e+	c #D0F3FA",
"f+	c #E2F7FC",
"g+	c #55D0FD",
"h+	c #62D4FD",
"i+	c #69D5FC",
"j+	c #6FD7FC",
"k+	c #7CDBFB",
"l+	c #83DDFB",
"m+	c #8ADFFB",
"n+	c #90E1FA",
"o+	c #9DE5F9",
"p+	c #AAE9F9",
"q+	c #B1EAF8",
"r+	c #B9EDF8",
"s+	c #DEF6FB",
"t+	c #41CAFF",
"u+	c #68D5FC",
"v+	c #75D9FC",
"w+	c #89DFFB",
"x+	c #96E3FA",
"y+	c #A3E6F9",
"z+	c #AAE8F9",
"A+	c #B0EAF8",
"B+	c #B7ECF8",
"C+	c #C7F0F9",
"D+	c #02208C",
"E+	c #061C7F",
". . . . . . . . . . . . . . . . . . . . . . . ",
". + @ # # # @ @ @ @ # # # # $ $ $ $ $ $ $ @ + ",
". % & * = = = = - - ; ; > , , ' ) ! ! ~ ~ ! % ",
". % { { & ] = = - - ; > > , ' ' ) ! ! ~ ~ ! % ",
". % { { { & = = - - ; ^ ^ ^ ^ ^ ^ ^ ^ ^ ~ ! % ",
". % { { { { / = - ; ; ^ ( ( ( ( ( ( ( ^ ~ ! % ",
". % { { { { & = - ; ; ^ ( , ' ) ! ! ( ^ ~ ! % ",
". % { { { { { _ _ _ : < [ : _ _ _ ! ( ^ ~ ! % ",
". % { { { { { _ ^ } | 1 1 | } ^ _ ! ( ^ ~ ! % ",
". % { { { { { _ } 2 * 3 3 ] / } _ ! ( ^ ~ ! % ",
". % { { { { { : | 4 ] > , ' ; | : ( ( ^ 5 ! % ",
". % { { { { { 6 1 7 { / > ' > 1 6 ^ ^ ^ 5 ! % ",
". % { { { { { 6 1 7 { 8 { - > 1 6 9 9 ~ 5 ! % ",
". % { { { { { : | 0 { 8 8 8 / | : 9 9 ~ 5 ! % ",
". % { { { { { _ } a b c b d e } _ 9 9 ~ 5 ! % ",
". % { { { { { _ ^ } | 1 1 | } ^ _ , 9 ~ 5 ! % ",
". % { { { { { _ _ _ : 6 6 : _ _ _ { ' ~ 5 ! % ",
". % { { { { { { { { { 8 8 8 8 8 8 8 & ! 5 ! % ",
". % { { { { { { { { { 8 8 8 8 8 8 8 8 f 5 ! % ",
". % { { { { { { { { { 8 8 8 8 8 8 8 8 g - ! % ",
". % { { { { { { { 8 { { 8 8 8 8 8 8 8 8 { ) % ",
". % { { { { { { { 8 { { 8 8 8 8 8 8 8 8 8 h % ",
". i % % % % % % % % % % % % % % % % % % % % j ",
". . . . . . . . . . . . . . . . . . . . . . . ",
". . . . . . . . . . . . . . . . . . . . . . . ",
". . . . . . . . . . . . . . . . . . . . . . . ",
"k k k k k k k k k k k k k k k k k l l l l l l ",
"m n o p p p o o o o p p p p q q q q q q q o r ",
"k s t u v w x y z A B C D E F G H I J K L M s ",
"k s N O P Q x y z R B C S T F G U I V K W M s ",
"k s X O Y Z `  .z ..B +.+.+.+.+.+.+.+.+.W M s ",
"k s X O @.#.$. .%.A &.+.*.*.*.*.*.*.*.+.W M s ",
"k s =.-.@.;.>.,.z '.&.+.*.T F ).U !.*.+.~.M s ",
"k s =.-.{.;.].^.^./.(._.:.<.[.}.^.!.*.+.~.M s ",
"k s |.1.2.3.].^.4.5.6.7.8.9.0.a.b.c.*.+.~.M s ",
"k s |.d.e.3.f.g._.h.i.j.k.l.m.n.o.c.*.+.~.p.s ",
"k s q.r.e.s.f.t.u.v.w.x.y.z.A.B.C.*.*.+.~.p.s ",
"k s q.r.t s.P (.9.D.E.F.G.T A.H.I.+.+.+.~.p.s ",
"k s q.J.t K.P I.H.L.M.N.O.P.A.9.(.c.V K ~.p.s ",
"k s Q.J.R.K.S.C.B.L.T.N.U.V.W.u.t.c.V X.~.p.s ",
"k s Q.Y.R.Z.`.o.n. +.+++@+#+$+_.g.!.V X.%+p.s ",
"k s &+Y.*+=+-+b.a.0.9.8.7.6.5.4.^.).V X.%+p.s ",
"k s ;+N *+Y -+^.}.[.<.:._.(./.^.^.>+H X.%+p.s ",
"k s ,+N O Y #.Z '+)+!+~+{+]+^+/+(+_+:+<+%+[+s ",
"k s ,+X O @.#.}+'+|+!+1+2+]+^+/+3+_+4+5+6+[+s ",
"k s 7+X -.@.;.}+8+|+9+0+2+a+^+b+3+c+4+d+e+f+s ",
"k s 7+=.-.g+;.h+i+j+9+k+l+m+n+b+o+c+p+q+r+s+s ",
"k s t+=.1.{.3.].u+j+v+k+l+w+n+x+o+y+z+A+B+C+s ",
"k D+s s s s s s s s s s s s s s s s s s s s E+",
"k k k k k k k k k k k k k k k k k k k k k k k ",
"k k k k k k k k k k k k k k k k k k k k k k k ",
"k k k k k k k k k k k k k k k k k k k k k k k "};
