/* XPM */
static char * toolbuttonbg_xpm[] = {
"1 35 25 1",
" 	c None",
".	c #D5FAFF",
"+	c #C1EAFF",
"@	c #BAE5FF",
"#	c #B3E1FF",
"$	c #ACDCFF",
"%	c #A5D8FF",
"&	c #9ED4FF",
"*	c #97CFFF",
"=	c #90CBFF",
"-	c #89C6FF",
";	c #82C1FF",
">	c #7CBDFF",
",	c #76B8FF",
"'	c #6FB3FF",
")	c #68AFFF",
"!	c #61AAFF",
"~	c #5AA6FF",
"{	c #53A1FF",
"]	c #4C9CFF",
"^	c #4598FF",
"/	c #3E94FF",
"(	c #3790FF",
"_	c #308BFF",
":	c #2986FF",
".",
"+",
"+",
"@",
"#",
"$",
"$",
"%",
"&",
"*",
"*",
"=",
"-",
";",
";",
">",
",",
"'",
"'",
")",
"!",
"~",
"~",
"~",
"{",
"]",
"^",
"^",
"^",
"/",
"(",
"(",
"_",
"_",
":"};
